<svg width="140" height="140" viewBox="0 0 140 140" fill="none" xmlns="http://www.w3.org/2000/svg">
  <path d="M140 70C140 74.67 139.54 79.23 138.67 83.65C137.92 87.4 136.88 91.05 135.56 94.56C127.37 116.45 108.51 133.14 85.32 138.32C84.67 138.47 84.01 138.6 83.35 138.73C79.03 139.56 74.56 140 70 140C31.34 140 0 108.66 0 70C0 31.34 31.34 0 70 0C108.66 0 140 31.34 140 70Z" fill="#E24C4B"/>
  <path d="M138.67 83.65C137.92 87.4 136.88 91.05 135.56 94.56C127.37 116.45 108.51 133.14 85.3201 138.32C84.6701 138.47 84.0101 138.6 83.3501 138.73L42.3101 97.69L97.5101 42.49L138.67 83.65Z" fill="#C63939"/>
  <path d="M47 47L93 93" stroke="white" stroke-width="15" stroke-miterlimit="10" stroke-linecap="round" stroke-linejoin="round"/>
  <path d="M93 47L47 93" stroke="white" stroke-width="15" stroke-miterlimit="10" stroke-linecap="round" stroke-linejoin="round"/>
</svg>
