<svg width="140" height="140" viewBox="0 0 140 140" fill="none" xmlns="http://www.w3.org/2000/svg">
  <path d="M140 70C140 73.37 139.76 76.68 139.29 79.93C138.58 85 137.31 89.9 135.56 94.56C127.37 116.45 108.51 133.14 85.32 138.32C83.56 138.71 81.78 139.04 79.97 139.29C76.71 139.76 73.38 140 70 140C31.34 140 0 108.66 0 70C0 31.34 31.34 0 70 0C108.66 0 140 31.34 140 70Z" fill="#0593FC"/>
  <path d="M139.29 79.93C138.58 85 137.31 89.9 135.56 94.56C127.37 116.45 108.51 133.14 85.3202 138.32C83.5602 138.71 81.7802 139.04 79.9702 139.29L43.9902 103.31L94.7002 35.34L139.29 79.93Z" fill="#0278C1"/>
  <path d="M92.8302 98.25H92.3702C92.0102 92.48 90.3102 80.53 82.5802 74.49C80.7102 73.03 79.7702 71.6 79.7802 70.25C79.7902 68.27 81.7702 66.34 82.4902 65.79C82.8902 65.5 91.9702 58.7 92.4402 41.76H92.8302C94.5902 41.76 96.0102 40.34 96.0102 38.58C96.0102 36.82 94.5902 35.4 92.8302 35.4H47.1702C45.4102 35.4 43.9902 36.82 43.9902 38.58C43.9902 40.34 45.4102 41.76 47.1702 41.76H47.6302C47.9902 47.53 49.6902 59.48 57.4202 65.52C59.2902 66.98 60.2302 68.41 60.2202 69.76C60.2102 71.74 58.2302 73.67 57.5102 74.22C57.1102 74.51 48.0302 81.31 47.5602 98.25H47.1802C45.4202 98.25 44.0002 99.67 44.0002 101.43C44.0002 103.19 45.4202 104.61 47.1802 104.61H92.8402C94.6002 104.61 96.0202 103.19 96.0202 101.43C96.0202 99.67 94.5902 98.25 92.8302 98.25Z" fill="white"/>
</svg>
